,Start,End
0,2019-06-30 13:21:42.703667,2019-06-30 13:21:44.304824
1,2019-06-30 13:21:44.372787,2019-06-30 13:21:47.396247
2,2019-06-30 13:21:50.326555,2019-06-30 13:21:51.601820
3,2019-06-30 13:21:51.729747,2019-06-30 13:21:52.466366
4,2019-06-30 13:21:54.739172,2019-06-30 13:22:02.945955
